ffscrapr • an R package for Fantasy Football APIs • ffscrapr
…
# Get rosters
ff_rosters(ssb)
#> # A tibble: 417 × 11
#>   franchise_id franchise_name player_id player_name     pos   team    age
#>   <chr>        <chr>          <chr>     <chr>           <chr> <chr> <dbl>
#> 1 0001         Team Pikachu   13189     Engram, Evan    TE    NYG    28.4
#> 2 0001         Team Pikachu   11680     Landry, Jarvis  WR    CLE    30.2
#> 3 0001         Team Pikachu   13645     Smith, Tre'Quan WR    NOS    27.1
#> 4 0001         Team Pikachu   12110     Brate, Cameron  TE    TBB    31.6
#> 5 0001         Team Pikachu   13168     Reynolds, Josh  WR    LAR    28  
#> # … with 412 more rows, and 4 more variables: roster_status <chr>,
#> #   drafted <chr>, draft_year <chr>, draft_round <chr>
#> # ℹ Use `print(n = ...)` to see more rows, and `colnames()` to see all variable names

# Get transactions
ff_transactions(ssb)
#> # A tibble: 1,145 × 12
#>   timestamp           type  type_desc   franchise_id franchise_name
#>   <dttm>              <chr> <chr>       <chr>        <chr>         
#> 1 2021-02-12 14:32:39 TRADE traded_away 0008         Team Bowser   
#> 2 2021-02-12 14:32:39 TRADE traded_for  0008         Team Bowser   
#> 3 2021-02-12 14:32:39 TRADE traded_for  0008         Team Bowser   
#> 4 2021-02-12 14:32:39 TRADE traded_for  0008         Team Bowser   
#> 5 2021-02-12 14:32:39 TRADE traded_for  0008         Team Bowser   
#> # … with 1,140 more rows, and 7 more variables: player_id <chr>,
#> #   player_name <chr>, pos <chr>, team <chr>, bbid_spent <dbl>,
#> #   trade_partner <chr>, comments <chr>
#> # ℹ Use `print(n = ...)` to see more rows, and `colnames()` to see all variable names
…
