…
ssb <- ff_connect(platform = "mfl", league_id = "54040")
#> No season supplied - choosing 2020 based on system date.

# Get a summary of league settings
ff_league(ssb)
#> # A tibble: 1 x 13
#>   league_id league_name franchise_count qb_type idp   scoring_flags best_ball
#>   <chr>     <chr>                 <dbl> <chr>   <lgl> <chr>         <lgl>    
#> 1 54040     The Super ~              14 1QB     FALSE 0.5_ppr, TEP~ TRUE     
#> # ... with 6 more variables: salary_cap <lgl>, player_copies <dbl>,
#> #   years_active <chr>, qb_count <chr>, roster_size <dbl>, league_depth <dbl>

# Get transactions
ff_transactions(ssb)
#> # A tibble: 172 x 12
#>    timestamp           type  type_desc franchise_id franchise_name player_id
#>    <dttm>              <chr> <chr>     <chr>        <chr>          <chr>    
#>  1 2020-07-31 16:19:51 IR    deactiva~ 0004         Team Ice Clim~ 11688    
#>  2 2020-07-31 16:19:51 IR    deactiva~ 0004         Team Ice Clim~ 13277    
#>  3 2020-07-31 16:19:51 IR    deactiva~ 0004         Team Ice Clim~ 12667    
#>  4 2020-07-31 16:16:36 IR    deactiva~ 0013         Team Ness      14140    
#>  5 2020-07-31 16:00:00 BBID~ dropped   0004         Team Ice Clim~ 13190    
#>  6 2020-07-31 16:00:00 BBID~ added     0007         Team Kirby     14129    
#>  7 2020-07-31 16:00:00 BBID~ added     0004         Team Ice Clim~ 14333    
#>  8 2020-07-31 16:00:00 BBID~ added     0014         Team Luigi     12164    
#>  9 2020-07-31 16:00:00 BBID~ added     0014         Team Luigi     10297    
#> 10 2020-07-31 16:00:00 BBID~ added     0013         Team Ness      7813     
#> # ... with 162 more rows, and 6 more variables: player_name <chr>, pos <chr>,
#> #   team <chr>, bbid_spent <dbl>, trade_partner <chr>, comments <chr>
```
…
