R: FAQ - Note: Using an external vector in selections is...
…
faq-external-vector {tidyselect}R Documentation

FAQ - Note: Using an external vector in selections is ambiguous

Description

Ambiguity between columns and external variables

With selecting functions like dplyr::select() or
tidyr::pivot_longer(), you can refer to variables by name:

mtcars %>% select(cyl, am, vs)
#> # A tibble: 32 x 3
#>     cyl    am    vs
#>   <dbl> <dbl> <dbl>
#> 1     6     1     0
#> 2     6     1     0
#> 3     4     1     1
#> 4     6     0     1
#> # ... with 28 more rows

mtcars %>% select(mpg:disp)
#> # A tibble: 32 x 3
#>     mpg   cyl  disp
#>   <dbl> <dbl> <dbl>
#> 1  21       6   160
#> 2  21       6   160
#> 3  22.8     4   108
#> 4  21.4     6   258
#> # ... with 28 more rows
…
