Get Player Scoring History — ff_playerscores • ffscrapr
…
#>   season player_id player_name     pos   score_total score_average franchise_id
#>    <int>     <int> <chr>           <chr>       <dbl>         <dbl>        <int>
#> 1   2020   3054850 Alvin Kamara    RB           337.          22.5            9
#> 2   2020   3043078 Derrick Henry   RB           324.          20.2            4
#> 3   2020     16800 Davante Adams   WR           301.          21.5            2
#> 4   2020     15795 DeAndre Hopkins WR           230.          14.4            4
#> 5   2020   2576925 Darren Waller   TE           225.          14.1            4
#> # ℹ 1 more variable: franchise_name <chr>
# }
# \donttest{
try({ # try only shown here because sometimes CRAN checks are weird
  conn <- fleaflicker_connect(2020, 312861)
  ff_playerscores(conn, page_limit = 2)
}) # end try
#> # A tibble: 60 × 8
#>    player_id player_name     pos   team  games score_total score_avg score_sd
#>        <int> <chr>           <chr> <chr> <dbl>       <dbl>     <dbl>    <dbl>
#>  1     13761 Josh Allen      QB    BUF      16        550.      34.4    10.4 
#>  2      3452 Aaron Rodgers   QB    NYJ      16        542.      33.8     8.49
#>  3     12894 Patrick Mahomes QB    KC       15        520.      34.6     9.95
#>  4      8598 Russell Wilson  QB    PIT      16        513.      32.1    10.8 
#>  5     14664 Kyler Murray    QB    ARI      16        507.      31.7    11.9 
#>  6     12919 Deshaun Watson  QB    CLE      16        503.      31.5     7.96
#>  7       309 Tom Brady       QB    FA       16        488.      30.5    12.2 
#>  8      8514 Ryan Tannehill  QB    FA       16        469.      29.3     9.76
#>  9     15516 Justin Herbert  QB    LAC      15        459.      30.6     9.67
#> 10      8625 Kirk Cousins    QB    ATL      16        446.      27.9     9.8 
#> # ℹ 50 more rows
# }
# \donttest{
try({ # try only shown here because sometimes CRAN checks are weird
  sfb_conn <- mfl_connect(2020, league_id = 65443)
  ff_playerscores(conn = sfb_conn, season = 2019, week = "YTD")
}) # end try
#> # A tibble: 589 × 8
#>    season week  player_id player_name          pos   team  points is_available
#>     <dbl> <chr> <chr>     <chr>                <chr> <chr>  <dbl> <chr>       
#>  1   2019 YTD   13593     Jackson, Lamar       QB    BAL     489. 1           
#>  2   2019 YTD   13130     McCaffrey, Christian RB    CAR     447. 1           
#>  3   2019 YTD   12652     Thomas, Michael      WR    NOS     338. 1           
#>  4   2019 YTD   13113     Watson, Deshaun      QB    HOU     330. 1           
#>  5   2019 YTD   11244     Kelce, Travis        TE    KCC     317. 1           
#>  6   2019 YTD   10703     Wilson, Russell      QB    SEA     315. 1           
#>  7   2019 YTD   12620     Prescott, Dak        QB    DAL     314. 1           
#>  8   2019 YTD   13128     Cook, Dalvin         RB    MIN     313. 1           
#>  9   2019 YTD   13319     Jones, Aaron         RB    GBP     312  1           
#> 10   2019 YTD   12625     Elliott, Ezekiel     RB    DAL     309. 1           
#> # ℹ 579 more rows
…
