Import latest DynastyProcess player IDs — dp_playerids • ffscrapr
…
    a tibble of player IDs

    See also

    https://github.com/DynastyProcess/data

    Examples

# \donttest{
try( # try only shown here because sometimes CRAN checks are weird
  dp_playerids()
)

#> # A tibble: 10,574 × 35
#>    mfl_id sportradar_id  fantasypros_id gsis_id pff_id sleeper_id nfl_id espn_id
#>    <chr>  <chr>          <chr>          <chr>   <chr>  <chr>      <chr>  <chr>  
#>  1 15237  aaa8b42c-4d87… 19780          00-003… 77632  7523       NA     4360310
#>  2 15238  cf15be8f-9117… 19781          00-003… 82118  7591       NA     4362887
#>  3 15239  17bb63b1-1b0e… 22679          00-003… 82096  7538       NA     4361259
#>  4 15240  676a508c-c65f… 20082          00-003… 91399  7610       NA     4383351
#>  5 15241  1fd00ec3-b758… 20156          00-003… 60323  7527       NA     4241464
#>  6 15242  13038760-a019… 19800          00-003… 39987  7605       NA     NA     
#>  7 15243  631e6ad5-0a97… 19383          00-003… 60556  7581       NA     4240904
#>  8 15244  79a849be-0552… 20081          00-003… 40217  7531       NA     NA     
#>  9 15245  22fd9495-1745… 19785          NA      NA     7555       NA     NA     
#> 10 15246  0d3113f7-2a82… 20159          00-003… 40216  7589       NA     NA     
#> # … with 10,564 more rows, and 27 more variables: yahoo_id <chr>,
#> #   fleaflicker_id <chr>, cbs_id <chr>, rotowire_id <chr>, rotoworld_id <chr>,
#> #   ktc_id <chr>, pfr_id <chr>, cfbref_id <chr>, stats_id <chr>,
#> #   stats_global_id <chr>, fantasy_data_id <chr>, swish_id <chr>, name <chr>,
#> #   merge_name <chr>, position <chr>, team <chr>, birthdate <chr>, age <dbl>,
#> #   draft_year <int>, draft_round <int>, draft_pick <int>, draft_ovr <int>,
#> #   twitter_username <chr>, height <int>, weight <int>, college <chr>, …
…
