Import latest DynastyProcess values — dp_values • ffscrapr
…
    Value

    a tibble of trade values from DynastyProcess

    See also

    https://github.com/DynastyProcess/data

    Examples

# \donttest{
dp_values()

#> # A tibble: 476 x 12
#>    player pos   team    age draft_year ecr_1qb ecr_2qb ecr_pos value_1qb
#>    <chr>  <chr> <chr> <dbl>      <int>   <dbl>   <dbl>   <dbl>     <int>
#>  1 Alvin… RB    NOS    25.5       2017     2       2.3     1.5     10018
#>  2 Chris… RB    CAR    24.6       2017     2.5     3       2        9901
#>  3 Davan… WR    GBP    28.1       2014     2.5     2.7     1        9901
#>  4 Jonat… RB    IND    22         2020     5.5     7.2     3.5      9227
#>  5 D.K. … WR    SEA    23.1       2019     5.5     6.8     2        9227
#>  6 Tyree… WR    KCC    26.9       2016     5.5     6.8     3        9227
#>  7 Dalvi… RB    MIN    25.4       2017     6.5     8.5     3.5      9013
#>  8 A.J. … WR    TEN    23.5       2019     7.5     9.6     4        8803
#>  9 Derri… RB    TEN    27         2016    10.5    14.1     5        8204
#> 10 Micha… WR    NOS    27.9       2016    11.5    15.2     7        8013
#> # … with 466 more rows, and 3 more variables: value_2qb <int>,
#> #   scrape_date <date>, fp_id <chr>
…
