Get Player Scoring History — ff_playerscores • ffscrapr
…
flea_conn: Fleaflicker: returns the season, season average, and standard deviation

mfl_conn: MFL: returns the player fantasy scores for each week (not the actual stats)

sleeper_conn: Sleeper: Deprecated their open API endpoint for player scores

    Examples

# \donttest{

conn <- fleaflicker_connect(2020, 312861)
x <- ff_playerscores(conn, page_limit = 2)
x

#> # A tibble: 52 x 8
#>    player_id player_name     pos   team  games score_total score_avg score_sd
#>        <int> <chr>           <chr> <chr> <dbl>       <dbl>     <dbl>    <dbl>
#>  1     12894 Patrick Mahomes QB    KC       15        520.      34.6     9.95
#>  2      3452 Aaron Rodgers   QB    GB       16        542.      33.8     8.49
#>  3     13761 Josh Allen      QB    BUF      16        550.      34.4    10.4 
#>  4       309 Tom Brady       QB    TB       16        488.      30.5    12.2 
#>  5     11329 Stefon Diggs    WR    BUF      16        302.      18.8     7.97
#>  6     10295 Davante Adams   WR    GB       14        338.      24.2    11.8 
#>  7     12197 Tyreek Hill     WR    KC       15        314.      20.9    11.4 
#>  8      9360 Travis Kelce    TE    KC       15        301.      20.1     6.44
#>  9     12926 Chris Godwin    WR    TB       12        179       14.9     6.89
#> 10     10252 Mike Evans      WR    TB       16        241.      15.1     8.67
#> # … with 42 more rows
# }
# \donttest{
dlf_conn <- mfl_connect(2020, league_id = 37920)
ff_playerscores(conn = dlf_conn, season = 2019, week = "YTD")

#> # A tibble: 597 x 8
#>    season week  player_id player_name          pos   team  points is_available
#>     <dbl> <chr> <chr>     <chr>                <chr> <chr>  <dbl> <chr>       
#>  1   2019 YTD   13593     Jackson, Lamar       QB    BAL     481. 0           
#>  2   2019 YTD   13130     McCaffrey, Christian RB    CAR     469. 0           
#>  3   2019 YTD   12652     Thomas, Michael      WR    NOS     391  0           
#>  4   2019 YTD   11244     Kelce, Travis        TE    KCC     370. 0           
#>  5   2019 YTD   12625     Elliott, Ezekiel     RB    DAL     356. 0           
#>  6   2019 YTD   12620     Prescott, Dak        QB    DAL     352. 0           
#>  7   2019 YTD   12626     Henry, Derrick       RB    TEN     352. 0           
#>  8   2019 YTD   13113     Watson, Deshaun      QB    HOU     342. 0           
#>  9   2019 YTD   10703     Wilson, Russell      QB    SEA     340. 0           
#> 10   2019 YTD   13319     Jones, Aaron         RB    GBP     338. 0           
#> # … with 587 more rows
…
